0 3535.6663310237955
1 230946.6109783666
2 2976.990436252971
3 25637.58484357638
4 5359.2865782372664
5 52.681077953527343
6 18621.203586298336
7 22475.347375819416
8 20987.978625834745
13 6162.1457544939203
14 19.694975921948561
15 27128.160189376089
16 9652.9451222505668
18 722.33490120123849
19 912.23961951436115
20 1762.131380454128
21 2906.9262592608829
24 0
25 200139.81056959473
26 34588.510053717851
27 3374.4838311829385
28 85094.831802582834
29 116155.27162951113
30 26778.98430131406
31 634.5598881669888
32 6832.6169433006071
33 10833.46194739736
34 18120.634666342467
35 9946.7159508727182
36 13030.888712206082
37 51077.25522805634
39 6365.6369446911685
40 6057.9099035233612
42 5446.9850207362606
43 14338.211583538421
44 111.83142367623563
45 461.06735113037143
46 2909.7785499170327
47 7203.2175472146064
49 0
50 79581.193836282357
51 39343.205432577015
52 21338.449261878952
53 16539.554896352645
55 8631.8225598872832
56 2330.7870887937479
57 17769.377460302694
58 9262.8169056504757
59 6140.0158396490442
61 3938.2498925711657
62 4736.8162149940872
63 3432.4322560131773
64 43745.064250329655
65 7731.0174556796592
66 73566.11656063488
67 15545.63412144086
68 90384.187744381925
69 16591.124798907204
70 11658.010358690528
71 7369.3593906293981
72 8001.5615956153979
73 30807.737244659555
75 1364.268829403371
77 8131.0844475288168
78 3743.3771314998535
79 873.54347626955087
80 8308.9536814663988
83 3057.8537328597636
84 507.32520494777634
85 34755.115765292197
86 3742.2846677756161
87 454.16671948124667
89 13387.95681521937
90 12043.27014388329
91 38385.005171365585
92 2078.0338099320907
93 32.228343686822342
94 16302.265094156321
95 19108.819401300341
96 24187.978082289068
97 25364.490817832986
99 8578.1776960184852
100 10055.02573733793
101 12979.135230198261
104 2614.9572958633976
110 228.19315663671631
115 6059.8140522603244
116 18560.426893180334
117 110548.29729218093
120 627.70466517374666
123 44534.133467602398
126 3940.055048357573
127 4692.2439229596703
128 2932.4918329669968
130 12443.684026237175
131 11339.277858887657
132 812.81906369364162
134 2878.9633753535572
136 5606.2438744268056
137 157379.3051164035
139 4843.458672534327
140 18.775771157719305
143 8226.3220208100283
145 65853.295968647217
146 91.352317147566382
147 4641.9119254657562
148 4753.8250303901677
151 15124.061744993232
152 391.90351912489916
153 23.129742577918584
154 4544.7622661088853
155 4996.5985644126631
158 18231.675166931167
161 120406.21813872609
162 2649.3093146123192
163 4153.9868331920534
164 5562.2060423976154
165 35570.597400305713
166 1668.7945470523659
167 32888.786205427285
169 14265.065075521135
170 12661.085888452206
172 981.15608621212186
174 425.57146821925335
175 342.95949128474848
176 36073.957274615481
178 3070.1267596682883
179 2831.2557519204288
180 55468.668360417003
181 35.356481871592372
184 7238.136035192364
185 140.34064094573154
187 12657.79373167085
189 51955.395689572499
191 19.116738718931401
193 220309.09510728592
197 5677.7093555443062
199 8317.2010128665133
200 9555.6073380681573
201 1884.9738095800233
202 10043.814112111699
203 34647.737895286002
204 15742.369663310667
205 466.87388547664023
207 18740.508515465204
208 1075.5584460628556
209 50874.420292977593
210 195.52299544604685
213 3156.3259200406565
215 4281.8720832691642
216 7129.2041636815984
217 8869.7800418129882
218 13072.623566969283
219 2297.3050906328481
220 137379.79056203977
222 2445.0999983742768
223 4862.4798439756196
225 9166.7602148405895
226 4842.9047585794915
228 54108.098803163979
229 4316.2792229955485
230 9655.6000861603898
231 17296.504876060724
232 2459.48597997262
235 693.9503516587057
236 1828.8573325628863
237 29037.978079065229
238 4.9087665492880763
243 17263.548064734456
244 22986.649557625919
246 14621.876970307416
247 7341.0027845828981
248 9188.1430781496128
249 71.679498690657056
253 2547.0187047043801
254 13190.625873785611
258 18349.066258545881
259 838174.43116560578
260 7339.8835996076568
264 154.00870939240829
266 2545.9784869526088
268 947.9313742678994
269 10.184410457364876
270 4778.3277660038848
275 1563.3055093350702
278 5.1503659412153606
279 63.650941755522567
280 43130.630805404988
281 2409.7462647848465
284 163.21925759670603
287 11091.029731675811
293 49125.720583516697
295 169890.7704488521
297 20702.265897506233
300 192353.72019108562
301 5854.0271568268981
302 30138.780521046625
304 446.66002148371848
305 113437.07686100921
306 4879.4510479188639
307 7175.0446114700508
308 25270.91543832422
309 2427.5277896965949
310 17723.955549586877
315 0
316 4662.4836718697679
317 6991.4680604379946
319 8505.4321533689836
320 33697.281634064515
322 56881.780693957007
324 31031.461805496983
325 13987.406034386788
327 6522.7018569089478
328 8506.4915048442817
329 531.24902403515591
330 15240.859952259625
331 20118.563852541127
332 50280.10921042665
334 122.89848973053607
337 6716.7635780881028
340 7.3041666666666663
342 2375.9861021885285
344 2554.4473721709901
345 16356.989022548387
346 55.815958395818939
347 2849.1419342217991
348 3937.9328412806162
349 12312.918481710025
350 504.54813102975959
351 251.30395160252331
352 4765.0827620100699
355 6356.7886428285074
356 18258.151458519555
357 3132.833248941683
358 837.11394176827946
359 10630.708987847172
361 14974.569789732957
364 3277.8781010092207
366 7623.0333024930387
367 7086.2805704700513
373 158.90669009245755
374 1238.8333813335396
378 0
380 5041.3717321682907
381 16993.131009698252
382 3981.08860522552
383 6228.0128182565359
384 19342.108650869886
385 8142.0741789946042
386 25400.777938256862
389 62113.76148731455
390 38977.701856321422
391 6385.9173311485692
392 3921.7629264421903
395 36.238104582756606
397 0
398 585088.6761779564
399 405413.29840525251
400 35107.415111032089
401 12257.130764413221
402 16288.967116981376
403 19460.971225121797
405 18024.905477471351
406 72.848426742686357
407 3808.8943350683221
408 2781.3895852281103
409 654.64371582730848
410 14616.289940215322
411 89.555416776420998
412 10674.712370520603
413 27796.74210998194
414 3946.3949572456272
415 2388.6871123577857
416 1769.7069162594016
417 7204.4223013194987
418 20841.825605960097
419 76277.235323248213
420 180.25880135679256
421 184420.02156902617
422 23144.64763342826
423 3539.2024855293075
424 13828.043486812214
426 1504.2300496227112
427 11963.487018959273
428 150770.35949104445
430 1793.2899351788358
431 1334.595292138697
432 10608.656195029227
435 4741.1740600556896
436 6236.9226146882111
437 4423.8545342192529
438 3229.8071440765352
439 1455.8410435388664
442 12816.919747900483
443 29251.219128908124
444 35519.178793235449
446 5996.7906084310152
448 27536.529009980484
449 3558.7588542233525
450 3768.3051421638484
452 8322.1848165724132
453 1014.8067892180109
454 12688.193185913357
455 817.98749356206838
457 6607.5735934648274
458 706.72030787646224
459 16679.750944961012
460 52110.763725531193
461 8528.7052821715079
462 3956.3675593332987
463 28419.778901317968
464 4457.9412273560656
465 221.4524114568656
466 10570.625593261673
467 26755.918510917985
468 11676.371245906288
469 47579.2348701878
470 1650.1943259327224
471 8834.5551616142111
472 253.30608944436071
473 16234.279865958979
474 132579.82927312065
475 4940.5991002658957
476 12130.107803320347
477 10946.56486926984
478 21193.148526998921
481 3385.8307968973063
482 18259.309367202724
483 14467.265124161242
484 15475.937604994366
485 12155.507493286334
486 104367.59271335603
487 7181.1492010966649
488 4265.1251179077944
489 338.64634814821454
491 10282.564264442026
492 81.372389311171702
493 52785.745995790778
494 1210.8801716766752
495 8171.7030656079869
496 9943.6846696424855
497 21398.506025531206
498 6711.9804467116774
499 120900.78137724049
501 7151.1373485301292
502 51132.2863229754
503 6003.9780728247306
505 4527.98015202237
506 8767.6264819097487
508 145683.77864249624
509 414.18364147581701
510 2201.7148685306665
511 6363.6889221668143
512 37160.496529816148
514 5026.0307553955117
515 361.20485988039371
519 536.97856134711026
522 5192.7467583579437
523 5776.1462454984512
525 55206.42258945245
526 61359.320162183329
527 4891.1411692426727
528 16413.955832432166
529 4899.0180450139205
530 49014.586199686972
531 3510.9533510753945
532 10509.156344566622
533 1199.1117850983003
534 6676.7228156093315
535 5612.9278286175886
536 37056.483533042316
537 7710.3872368005332
538 102206.23107077891
539 6635.9629042859106
540 21717.373474387645
541 29410.461533186091
542 1284.1764459868327
545 5162.5349526100972
546 17850.250738413357
547 10103.545300600392
549 690.53859922346851
550 5494.4390748529058
551 48002.228704545116
553 1392.6503185635768
554 2476.0780979441633
555 16601.252000678305
556 26243.257374170986
557 31566.894370474118
558 3697.6177986942953
559 6415.0883575275111
560 2838.341229281596
562 12094.202735035471
563 5311.4518767780346
564 3425.377582385433
565 5906.2072158073233
566 553.12301754284431
567 7426.2896988112043
568 1841.6896642042045
569 26345.724026028449
571 41858.305931365583
575 182.29025615291172
576 24774.371052682909
577 6973.6848820535279
578 24233.096303713664
579 24905.762940799908
581 13063.749991784702
582 2191.0334493467381
583 16397.407501142683
584 2767.2078622850063
585 35.860757603616783
586 7509.837816096976
589 12541.379980847878
591 41.705356398775983
593 14768.409806979245
595 151.66926709102353
599 10153.553079651625
600 1251.8527610615154
603 15807.487518714031
604 224.12743627319472
606 7508.3933133238015
608 19018.019713416674
609 4930.9587722216684
610 8057.5767169560349
611 24351.047674163932
614 11959.879140211217
617 45820.748038030972
619 1730.6533215635859
623 12610.422192049582
624 4665.186751600967
625 12308.328255594541
626 1859.1922184761429
628 2120.9363190497356
629 17738.39613258337
630 6881.7012932894304
631 230.29674762686008
632 1061.1450319357953
633 27233.96129503434
635 19167.007479897391
636 60178.77143566552
639 2397.4363093931006
640 318.59510753344176
641 4720.0699066568595
642 2507.2653046287305
643 12685.314096210268
646 4222.2450684209616
647 9796.1220226774258
648 238579.11422743305
649 49793.957007336357
650 2744.4872919555551
651 4102.531749363764
652 12528.828021799007
654 10906.514706908798
656 13045.033833623427
657 5302.9827734858754
658 263248.56803482556
660 5890.7681603461087
667 6245.0284534623415
668 21251.439628649201
669 20632.109316162907
673 12944.863608760552
674 53284.086836501185
676 9185.9726091552129
677 11948.157923722792
679 8076.7446891615891
682 175051.56575336147
685 57511.442034326414
686 21851.103943107926
687 16874.25361535871
688 11793.182087953004
689 85735.730753081094
690 10577.500292760164
691 893346.34924107022
692 89.57223593536159
696 21016.751800289727
697 15243.583164069782
698 21357.630894712012
699 10767.112915305665
701 7929.7018565989665
702 25850.112449403379
705 11997.070649249823
706 44695.628290911496
707 18252.957674446821
708 45227.87944679732
709 7874.8238900536307
712 55882.887331903257
713 11535.503909418987
715 9547.8617385454381
716 22269.126992034573
718 7634.5414571828724
720 29305.972974632306
722 4990.0318482299563
724 3167.7062519410151
725 58378.793596001138
726 150821.63485610776
727 10100.125701163086
728 19301.682428840275
729 16018.990542250434
730 39709.056773155251
731 9359.8885001948802
732 2472.8555436702204
733 13980.677992072518
734 3269.8398355064728
735 20772.900923268979
737 35621.850296437988
738 64962.375414038455
739 101707.48603330346
740 26047.992831359556
741 10572.697061903111
742 4340.6525100434983
743 56258.035207182715
744 21302.061594558807
745 8.4262705386286267
747 10055.330936043476
749 2089.8534828420075
750 17276.477923235027
751 2400.5613767450241
752 36423.78950444713
753 22056.92840830364
754 9769.6186501188586
755 18209.920600927926
756 29016.349402387408
757 3207.1621249312338
758 19552.412432453133
759 34589.336012802778
760 219229.20580178531
761 53814.393003670157
762 27872.005917949195
763 3616.7797831996118
764 39859.095109510461
765 35311.507428282028
766 92856.478132678079
767 31979.195235950228
768 98153.19129644701
769 45123.358688125547
770 12443.165917756589
771 5363.4783210340038
773 14079.660448664323
776 2985.036495525761
777 35993.865613364294
778 77391.441850764066
779 9128.0062676504458
780 37208.46327996358
781 63436.445040133025
782 17291.837646498927
783 20778.053161475957
785 8498.301398886364
786 6237.8691055511554
788 16807.302496742595
789 47583.019744847115
790 1695.9164468453073
791 19819.470585524512
793 18097.41038122648
794 20857.012105941409
795 11063.262042312956
797 4076.6845005937271
801 12609.802542445279
802 9575.5699028882646
806 7312.2371630101798
808 2425.9339535224258
809 46012.735583626316
811 33305.864248960163
812 5767.2523180931694
814 27363.693765978689
815 20513.391236617936
817 116.79692112326924
818 39627.52697328369
819 4393.9301319601309
821 19072.690937868138
822 30669.1693782929
823 7.2903095848787469
826 48137.878642584677
827 5458.7185897361605
828 7944.8650539656719
829 2658.8036152805239
831 768.2883545078048
832 14858.236612364928
834 56311.724508051797
837 3538.2479959082566
840 15622.616885318719
843 8769.4704947045975
844 11442.665633987805
847 11866.05442737587
848 12027.050979116197
849 2883.6560094029865
850 17467.145416763153
852 31301.371909847814
855 3783.9763392666978
857 4460.9310866002324
858 1387.1115707576712
861 8298.2794837332076
866 16164.316703770033
870 50997.693533618585
871 2932.3888343759545
878 0
879 65601.338844929196
880 37426.581863114021
881 3862.6353146164138
883 429.60635702391232
884 0
885 3614.9848500005792
886 0
887 5041.4360262347764
888 163.63509889995547
890 4955.3006088034799
893 3409.31016428352
895 18868.721212392513
896 310442.39533020853
897 24699.436657608061
898 12583.691397722876
899 183722.8640724078
901 29829.305017247199
902 142.95612636079508
906 0
907 0
908 0
909 0
910 7605.5205541017767
911 24076.669310001878
912 2520.1037926393055
913 37143.482480857725
914 957.71204139804809
915 9703.8738250230217
916 138736.83814751392
917 277.30986771381657
919 18.307795204808126
920 72239.009719890077
921 5316.7380310563785
923 38846.353152889482
924 36522.852206103802
927 25269.851504257836
928 201174.88644320489
930 36845.991349799355
933 43558.956300951359
934 12237.869919940507
936 78249.547202337504
937 30698.98007496649
938 17861.427466971989
939 4729.389434976013
940 11215.941618117493
941 2432.2987059235647
943 0
944 4536.6063292573253
946 0
947 2457.2984164357599
949 34442.002848842007
950 144.2971324774048
952 0
953 54831.543057077142
954 79118.554524707055
955 4462.938094693216
956 15902.098495674038
957 45287.245186285763
958 23683.190644907718
959 3221.1627596519311
960 33831.532140324001
961 3708.6394063272264
962 60955.730878580478
963 5995.2217136836462
964 6807.955369080395
965 76868.15219776216
966 10248.143091000306
967 22195.266788418929
968 167.29026126445643
969 16745.486766689566
970 14813.283111577848
971 6079.9901834414304
972 40584.644611707212
973 21521.501716187668
974 2237.5093926990639
975 6414.7212256765297
976 9186.854904485097
977 26239.696652444814
978 18023.257883172057
979 75855.081561851868
980 7978.7742382267197
981 36660.804830978763
982 14269.949440904107
983 30352.277434028165
984 23284.733564176262
985 29252.082778374963
986 67328.555097959586
987 53212.858666206375
988 11252.712065601449
989 26908.42525306379
990 2849.9631065819221
991 9062.7985012772369
992 24661.176292717686
993 3558.1398883964448
998 6345.213891492217
999 18993.768308656414
1000 13729.785307795493
1006 69342.697895232675
1007 29795.041803900807
1008 27419.117570387174
1009 13685.678631896601
1010 14511.698778495282
1011 19773.769361417624
1012 6679.5359278053638
1013 161180.36641106027
1014 18088.057978487082
1016 117134.60096666924
1017 3278.2103804720864
1020 40993.470991732735
1021 16838.272335269423
1022 77332.572625489527
1023 4897.0191065271556
1025 51804.199669143905
1026 43001.662390724632
1027 2547.8456018231914
1028 26921.776703090483
1030 9978.4782047195549
1031 10621.211191948807
1034 7350.7241026706643
1035 9891.9338273064568
1036 97.540730766685499
1042 0
1044 0
1046 0
1047 40879.625961160506
1048 4833.406539936349
1049 3197.1458076435119
1050 61812.091896447819
1051 14679.31603214881
1052 18448.627718914573
1053 2190.1513881532646
1054 140376.35747086475
1064 8914.3412325094832
1065 2861.5369041031145
1066 5805.3639713781104
1067 30791.946967954631
1068 37043.361113185907
1070 19044.909398709999
1071 841.11809787555137
1072 1369.825302942889
1074 987.45688866706109
1075 22749.744649493947
1076 120137.78513110598
1078 41220.414922912314
1079 7506.0493402777138
1081 111404.2994497008
1083 0
1084 1854.1112009130595
1085 2379.0801661876585
1086 293619.79024072131
1087 65390.766604172444
1088 43708.896948346825
1089 48961.880342172626
1090 31904.395010131753
1091 2656.1583471023432
1092 19359.212536623199
1093 11842.003966191714
1094 18667.63607683414
1095 3679.9719555408765
1096 4078.2216096902694
1097 12737.91843572482
1099 137299.18152952849
1101 57948.215092493236
1102 17033.638442520794
1103 23489.795710811995
1104 11862.403077216326
1105 5715.6525267376846
1106 155789.87743222888
1107 11405.999475937731
1108 20068.385092736167
1109 6313.0909862605231
1110 19128.054259772503
1111 32424.429812102033
1112 5305.4547409049537
1113 52569.626104970172
1114 13899.874549346619
1115 5579.4576593054098
1121 0
1122 167784.60408473967
1124 28658.520827677214
1125 0
1126 0
1127 0
1128 302.62626011694255
1129 12782.057783077671
1130 30401.720296024305
1132 0
1133 0
1135 22805.838326359946
1136 47247.587107245934
1137 32583.317658229877
1139 15304.462246946079
1142 82140.171584314798
1144 0
1145 0
1146 600.21815984381146
1148 0
1149 9334.8958515232389
1151 13223.114818108057
1152 6475.5590047152436
1154 10213.6733019282
1155 29154.624913175834
1157 8100.353060197338
1159 0
1160 0
1161 0
1162 0
1163 12833.151940595868
1164 32675.947128663789
1165 410.19771462974336
1169 7461.2101130244173
1170 275184.70213132491
1171 519.73853173376392
1172 15378.341469110443
1173 3189.6301691619401
1175 22523.262828682164
1176 3555.6496976370599
1178 2380.5307199595718
1181 0
1182 0
1183 11299.530589058391
1185 0
1186 6043.9358967530052
1188 8426.5365506420967
1189 22138.002352391683
1190 16822.459633330898
1191 10956.53450202877
1192 5427.2235789745955
1195 76038.230424478083
1198 14494.986705259851
1199 16500.798269714796
1201 0
1203 0
1204 7.6482278673192425
1206 0
1207 3349.1103028174239
1208 0
1209 0
1210 5747.6377095356274
1211 5725.3322342038864
1212 890.38702373858484
1214 0
1215 0
1216 13187.802903206242
1217 5940.5561552924064
1218 11550.706681494634
1219 8136.4009266241701
1220 15575.480610100523
1221 13884.500971156307
1222 15662.183158480155
1223 45092.226737708261
1224 5204.5457166500964
1225 4867.8352598529136
1226 4106.2251095687416
1227 15216.647550989699
1228 105694.64056064194
1229 201.89453766160776
1230 8460.0842671931114
1231 102488.63206542708
1232 2647.0098275447394
1233 9577.7240175215047
1235 2608.6946085417758
1236 5003.859885397871
1238 900.59544279513898
1240 10447.661300621305
1241 1863.5009650888765
1242 30949.194139191113
1244 2467.5408566651104
1246 118010.38805002408
1247 72978.082932356469
1248 45392.234875096809
1249 44681.387043519979
1251 796.85532905125126
1252 23.699073634221865
1253 21.207701374758141
1254 370.66774094787547
1255 2073.0108223500611
1256 395.57388629808207
1258 75231.874221281541
1260 14425.602041513546
1261 3779.485092434893
1262 23.782573057097345
1263 11781.763977176344
1264 9629.0057655304518
1266 38814.308500297608
1267 98224.427651295409
1268 4678.5992367919825
1269 11873.851605902115
1270 139834.95951460034
1271 44676.340123314025
1272 15753.860438953196
1273 31682.209989124967
1275 30229.275678233738
1278 2434.3275671065567
1279 2984.7128370091518
1280 8580.3709447115907
1281 33796.300631986167
1283 18334.336559329091
1285 195148.13098142913
1286 286.38999725463373
1287 795.83846721580528
1289 2375.3526120444112
1290 19034.094113480187
1291 5633.535301475611
1292 10039.295131694551
1293 1187.5297844537463
1296 59849.096981270028
1297 41676.823927423968
1301 3859.7221236323876
1303 2464.0427091672004
1304 2495.6625891867525
1305 73.109323080390794
1308 735.62036879296454
1310 47.806592872621515
1311 26089.817048478391
1316 37822.5873885724
1318 64003.16009017278
1319 35041.459841184645
1321 98525.574721404104
1322 15019.079940269976
1325 27091.75337443619
1326 169.2453833034177
1327 4224.1186386568679
1332 12286.680931400315
1334 0
1335 5.463253598329767
1336 4161.2779536267699
1338 2445.1690669627405
1339 55.874679945625807
1340 154.36680543207078
1343 2073.982108893943
1344 5122.6444018823795
1345 65644.438637765241
1348 34123.739638558327
1349 8459.9494165226442
1350 9478.3856420746652
1351 28973.596205523201
1353 10180.600005551596
1355 7866.16887775549
1356 12555.798353061977
1357 2402.6168458701536
1359 0
1360 0
1361 0
1362 0
1363 0
1365 0
1367 0
1368 0
1369 0
1370 0
1371 0
1372 8020.0575614597774
1373 25231.422408351984
1375 0
1376 364.08296807186082
1377 115206.90328495533
1378 37222.442829285355
1379 94737.696752873933
1380 9058.8088955391213
1381 13884.080063657122
1382 7854.9293045391296
1383 166.23186686756469
1384 16205.519887564285
1385 2353.4847105165327
1386 30335.067384783299
1388 68971.773344448462
1389 11924.057428823631
1390 91405.291379372706
1391 5183.8335722815664
1392 12724.3318153695
1395 2839.2137769942128
1396 1090.6316002522383
1397 4104.7607987959191
1399 25.076014755995018
1400 4189.9700394089441
1402 7031.265175796555
1406 61.290952678703263
1408 9726.650589706509
1411 0
1413 7824.4245296796053
1414 12278.421768886725
1417 0
1418 9992.8710892476884
1419 0
1420 0
1421 0
1422 0
1423 0
1424 4184.0311461418205
1425 18867.389652821919
1426 32100.813754600505
1427 34373.485465384198
1428 11.05122914092261
1429 6562.8083274601722
1431 1584.2287564002543
1434 0
1435 0
1436 0
1437 2337.4886477871282
1438 0
1440 28763.245904913238
1441 10388.062189705548
1443 125596.82474063375
1444 14464.939516866005
1446 30904.909744727607
1449 170.17783121967159
1450 0
1451 0
1452 8152.4884069748814
1453 0
1454 0
1455 15437.104692393463
1456 2944.7798402481926
1457 10364.418817765645
1458 8570.6291450016161
1459 14284.039325522153
1460 18336.000479951177
1461 218.39321464248377
1462 7542.5342239312768
1464 13194.865697497726
1465 1766.952500465035
1466 4646.4460131392898
1468 16702.271366158377
1469 5017.6317893101759
1470 457.09385565122614
1471 14352.161367842802
1472 6921.6633349395233
1473 43638.402910666729
1474 12036.181299772285
1475 1514.5730409468617
1476 7723.3750529113722
1477 20258.575239292481
1478 12019.996223529224
1479 9861.0801488672259
1481 86.060992118595337
1484 6699.3250617915774
1488 29220.575111074824
1491 1445.4262978223692
1492 27973.004090667899
1495 27990.822513636082
1498 12592.868200046591
1502 17745.927990438409
1503 11237.366263845208
1505 9956.606903220998
1506 26065.216202074982
1507 47485.12053515741
1510 28917.604557224236
1511 22587.036539385128
1513 3384.6475787279546
1514 7118.5306521384973
1521 2332.7029659722975
1522 117.46165888246622
1524 0
1525 5361.9618038466842
1527 8857.733252282409
1528 0
1529 0
1530 0
1531 10592.108565339255
1532 12373.928544890396
1534 0
1535 0
1536 0
1537 0
1538 0
1539 0
1540 0
1541 0
1542 0
1543 7397.9428166186299
1544 48783.644440676595
1545 17117.446575360758
1546 1406.9105897904633
1547 15.242576672402116
1548 2805.8782408328875
1549 6317.6820240895213
1550 37608.666110420869
1551 17247.28338758571
1552 17549.497106158182
1553 5766.5027273596243
1555 6834.9903170232446
1556 777.48539469173829
1557 7162.9179830060211
1558 8904.1454202221757
1559 7243.0712368652048
1562 3444.5163582312643
1563 15.429476371308226
1564 16487.988919187941
1566 20995.600901784332
1567 58.946264206683495
1572 5238.5541470809612
1573 25847.641989405602
1574 7510.1615518925555
1575 10372.653636652261
1577 4230.0584324059701
1581 96.236742060504639
1584 0
1585 0
1586 0
1587 0
1588 25926.12014994198
1589 30591.895472172826
1590 1007.2579794687961
1591 8.1815052185742037
1592 11409.955624316644
1595 1207.2355235186935
1598 2411.0821002909393
1599 1021.4793563254821
1600 13169.973392015829
1601 0
1603 948.59041785518571
1604 2609.0720692665595
1605 268.14026707687316
1607 28.67526016329213
1608 0
1609 0
1610 0
1611 0
1612 4865.992240915336
1613 7970.4699033448433
1614 2356.1207326748863
1615 4478.6679175183463
1616 3244.3751626366206
1618 19992.851386838414
1619 14944.658419277628
1620 666.93609402062395
1621 622.91424242091227
1622 11511.292930300227
1623 50991.590562239842
1631 399.71037204370589
1632 35.114936734205337
1634 11590.336171844534
1635 19953.911304502439
1637 0
1638 0
1639 0
1640 0
1641 0
1642 0
1643 0
1644 91713.008650983626
1646 0
1647 516.69360581109936
1648 37.976765939475499
1649 0
1652 37.233075685978235
1653 35530.219406172262
1654 27.62475074806299
1655 9332.9701447227799
1656 42.095294185980457
1657 2217.8750829339083
1660 349.25373350666098
1661 24.629496165746051
1664 199.38988440548704
1666 0
1667 0
1668 668.86632091886952
1669 0
1670 0
1671 0
1672 0
1675 0
1677 0
1678 0
1679 0
1680 10836.782104061422
1681 12753.152462804317
1682 41088.044583398201
1683 1809.743288321099
1684 1651.7942082806017
1687 25.945044191928414
1690 0
1691 4738.0984107759459
1692 0
1693 16636.852160648683
1694 33403.943463843738
1695 8326.6172593997708
1696 12299.043077821081
1697 5457.6689484513063
1698 17861.631810100454
1702 78.353133006326772
1704 0
1705 162.90000343203417
1706 6330.2943355091884
1707 6055.6971751821584
1709 24246.412146050134
1711 8925.8748934814193
1713 0
1714 0
1715 0
1716 4770.5084785285389
1717 15242.444537997198
1719 0
1720 0
1721 0
1722 0
1723 0
1724 0.083333333333333329
1725 25419.196188623071
1726 0
1727 0
1728 0
1729 0
1730 338.37485471509757
1731 0
1732 0
1733 0
1734 0
1735 0
1736 0
1737 98.397614747601125
1738 0
1739 0
1740 0
1741 0
1742 7307.8047149770073
1743 0
1744 0
1745 0
1746 0
1747 0
1748 0
1749 0
1750 0
1751 0
1752 0
1754 2715.5056428834564
1755 2399.7708936397526
1756 27.451198626743015
1757 2379.1293412406931
1758 0
1759 0
1760 0
1761 1988.3390861466557
1762 0
1764 0
1765 0
1766 23969.911003225054
1767 0
1768 0
1769 0
1770 0
1771 1208.0803943023379
1773 0
1774 0
1775 0
1776 0
1777 0
1778 0
1779 0
1780 0
1781 0
1782 0
1783 0
1784 0
1785 0
1787 0
1788 11576.106224258223
1789 42477.208871240466
1792 0
1793 0
1794 2277.3879877132886
1795 9428.5992619169774
1796 0
1797 0
1798 311.56161597389428
1800 0
1801 0
1802 0
1803 0
1804 0
1805 12410.569260762895
1806 0
1807 33.411283432298703
1808 0
1809 0
1810 14342.688054276907
1811 0
1812 0
1813 0
1814 0
1815 0
1816 8646.7321500549788
1817 540.33956583006579
1818 41037.558086378325
1819 9022.3485481691132
1822 0
1823 0
1824 0
1825 0
1826 0
1827 0
1829 10859.048130377194
1830 13414.597121729988
1831 0
1832 4892.2073589294405
1833 0
1834 141.07336428157865
1836 14638.986007815698
1837 34581.921370906843
1838 31050.416861416044
1839 24021.205474679111
1840 6576.4212861627711
1841 5217.4833063029773
1842 87.040347505206
1843 0
1844 0
1845 7.1159587338291654
1846 10895.085075532628
1847 2663.0571210255307
1848 2322.8159549102747
1849 731.98228479202385
1850 189.42095548537222
1851 591.72452832683916
1853 13782.607636665623
1854 19.774526095206294
1855 2415.86850944447
1856 99282.651123474614
1858 28441.004602516943
1859 9610.298954647209
1861 1141.7603309364285
1862 7811.5405965362615
1863 0
1864 0
1865 0
1866 0
1867 28406.458851896801
1868 4132.5067668480388
1871 50324.203689498674
1872 4820.3793388924878
1876 13.105161944532217
1877 7067.6168341416969
1878 198.37986483501271
1879 5073.2396639573371
1880 228.43345446135987
1881 0
1882 0
1883 0
1884 0
1885 0
1886 0
1887 0
1888 0
1889 0
1890 0
1891 36.316780067921556
1892 2599.8321011798498
1895 0
1896 6579.0404139645871
1898 0
1899 0
1901 2331.4817895233273
1903 0
1904 0
1905 0
1906 0
1907 18739.356594065503
1908 5012.3732331890733
1911 3298.1678249785109
1913 0
1915 0
1916 0
1917 0
1918 0
1919 0
1920 0
1921 0
1922 0
1923 0
1924 0
1926 3212.8128790144137
1928 0
1929 0
1930 0
1931 0
1932 0
1933 0
1934 19384.04766192133
1935 0
1936 0
1937 0
1938 0
1939 0
1940 0
1941 18817.862859996119
1942 201.79941272324123
1943 8429.3795209563814
1945 6875.4507020018491
1948 0
1949 0
1951 0
1952 0
1953 0
1954 0
1955 12611.935829231981
1956 2424.8705093465096
1958 12265.067672692645
1959 4020.0885086654116
1962 33705.168936996175
1964 0
1965 0
1966 0
1967 0
1968 0
1969 0
1970 0
1971 0
1972 0
1973 0
1974 0
1975 21760.692567644845
1976 16503.308492709246
1977 5990.0680444735972
1978 8137.6840825718027
1979 21792.407025415079
1981 7774.0054305164276
1983 7928.0419540637522
1984 4808.3494099419959
1985 3664.7021026295843
1986 3871.8608485461245
1988 4660.4156065378265
1989 26.474937856010659
1991 30854.441421768788
1992 2386.6509249700889
1994 0
1995 0
1996 244.03681883586981
1997 67282.074375919226
1998 5168.9782353746077
2000 0
2001 0
2002 0
2003 0
2004 0
2005 0
2006 0
2007 0
2008 0
2010 0
2011 0
2014 0
2015 0
2016 0
2017 0
2018 0
2019 0
2020 0
2022 5656.4112012678743
2023 1.25
2025 4167.3858566543295
2027 23.511306798088427
2029 25.765575007809957
2030 1564.7459815374359
2032 12555.356406691004
2033 13207.821950612259
2034 7551.1640991184295
2037 35048.262871150298
2039 3613.4734199271752
2040 14522.894720177495
2041 2366.9488619769159
2042 3540.7510116847466
2044 4801.1746345910096
2047 9736.061997321809
2048 7274.634378906132
2051 4416.3680731514596
2055 2505.7680248438523
2056 38.66928444276131
2057 2379.3399382557091
2059 2348.3465223542585
2060 1208.1118072866184
2066 2422.7537621298356
2072 41122.090226538334
2076 15951.831144608737
2077 8343.1755172108387
2079 14208.46836432784
2081 14662.79681401543
2083 20052.667807086927
2084 39.28551602782639
2085 2337.5678680648439
2094 358.57513576061075
2097 50360.44072897255
2100 2813.8413161703425
2101 11426.345087543366
2102 5790.5613155304218
2106 2237.2373642468142
2107 9501.7824174510133
2108 7078.3865804019961
2114 115.59437080618012
2120 0
2121 0
2122 0
2123 0
2124 0
2127 0
2128 0
2129 0
2130 0
2131 0
2132 0
2133 0
2134 0
2135 0
2136 0
2137 0
2138 0
2139 0
2140 0
2141 0
2142 0
2143 0
2144 0
2145 0
2146 0
2147 0
2148 0
2149 0
2150 0
2151 0
2152 0
2153 0
2154 0
2155 0
2156 0
2157 0
2158 0
2159 1982.5682907743371
2160 0
2161 0
2162 0
2163 0
2164 0
2165 0
2166 0
2167 0
2168 0
2169 0
2170 0
2171 0
2172 0
2173 0
2175 0
2177 11456.668055204067
2179 12423.381071630225
2180 2755.7675945093824
2182 0
2183 0
2184 0
2185 0
2186 0
2187 0
2188 123.98958604632014
2189 0
2190 0
2191 0
2192 0
2193 0
2194 0
2195 0
2196 7135.3346038185446
2197 0
2198 0
2199 0
2200 0
2201 0
2202 0
2203 0
2204 0
2205 0
2206 0
2207 0
2208 15487.678475733148
2209 19323.16868427119
2210 2400.171709217409
2211 0
2215 0
2216 0
2217 0
2218 0
2219 0
2220 0
2221 0
2222 0
2223 0
2224 0
2225 0
2228 0
2229 0
2230 0
2231 0
2232 0
2233 0
2234 0
2236 0
2237 0
2238 0
2240 0
2241 11466.815709111261
2242 1416.4567226800118
2246 0
2247 0
2248 0
2249 0
2250 0
2251 0
2252 0
2253 0
2254 0
2256 119.56587677734552
2257 0
2258 0
2259 0
2260 0
2261 0
2262 0
2263 0
2264 2602.3747609529055
2265 8992.0555108461722
2267 0
2268 0
2269 0
2271 0
2272 0
2273 0
2274 0
2275 0
2276 0
2277 0
2278 0
2279 0
2280 0
2282 5171.6624713622332
2283 6077.7594556210943
2284 0
2285 33.661405736134213
2286 0
2287 0
2288 0
2290 0
2291 4727.1054778608723
2292 0
2294 0
2295 0
2296 0
2297 0
2298 0
2300 0
2301 0
2304 1.6569230769230769
2305 652.92486457924622
2309 5355.7387322362738
2311 106.38974357963352
2314 28429.007447054719
2315 0
2316 0
2317 0
2318 0
2319 0
2320 0
2321 0
2322 0
2323 0
2324 0
2325 14693.378821420652
2326 6396.9722879594265
2327 2411.2151003260747
2328 1301.5672437430333
2329 11933.226590639453
2330 2242.8160954267269
2331 117.29621573375009
2332 4904.5020579691791
2333 7050.0873442111379
2334 60392.225964283723
2336 12588.01334813735
2337 503.68288377048975
2338 7478.2818621520018
2339 4813.9083023509065
2340 13.713516829675807
2341 8993.5848773765265
2346 13481.563697159409
2347 17847.424733265638
2349 2580.1020356100853
2350 2459.4392370314772
2352 30.63269770513444
2354 761.09740581550477
2357 1073.4490681523516
2362 72.874702222847347
2365 4.0329169861146603
2366 0
2367 31662.262480412497
2370 3268.9805605442484
2372 886.95991104674454
2373 0
2375 0
2376 0
2377 0
2378 0
2379 0
2380 0
2381 0
2382 5185.0681256755697
2384 22770.965543311482
2385 0
2387 19944.090444218979
2388 201818.30627178567
2389 12287.755592543626
2390 4704.3873532057796
2391 10.512096560425494
2393 1534.5140441899289
2394 21487.601653937443
2395 24739.406674220234
2397 537.15193733219144
2400 15642.987664203734
2401 7098.6221976185561
2405 16168.41021532593
2406 5219.9922460686048
2407 18.724114878089306
2408 1205.0187591333004
2411 14541.656150273016
2413 0
2414 0
2415 0
2416 0
2417 0
2418 0
2419 0
2420 0
2421 0
2422 0
2423 0
2424 0
2425 0
2426 0
2427 0
2428 0
2429 882.79022263346224
2430 922.77076609856238
2431 1004.8271275878203
2432 3734.0215600421243
2436 0
2437 0
2438 0
2439 0
2440 0
2441 0
2442 0
2443 0
2444 0
2445 0
2448 0
2449 0
2450 0
2451 0
2452 0
2453 0
2454 33.157050601152548
2455 0
2466 31.62032272256911
2468 9.5728897801321544
2469 0
2470 0
2471 0
2472 0
2473 0
2475 0
2476 0
2477 0
2478 0
2479 0
2480 0
2481 0
2482 41.663833358908647
2484 0
2485 607.3163424748243
2486 142.09596794681906
2487 0
2489 0
2490 0
2491 0
2492 0
2493 0
2494 0
2497 0
2498 8177.0251729016018
2499 0
2500 0
2501 0
2502 0
2505 887.94762259963613
2506 0
2507 0
2508 0
2509 0
2510 0
2511 0
2512 0
2513 0
2514 0
2515 0
2516 0
2518 0
2520 0
2521 0
2522 33.857536935576832
2524 0
2525 0
2526 0
2527 0
2528 0
2529 0
2530 0
2531 0
2532 0
2533 0
2534 0
2535 0
2536 0
2537 0
2538 0
2539 0
2540 0
2541 0
2542 8.7407590381719054
2543 2509.702603258238
2545 0
2546 0
2547 0
2548 0
2549 0
2550 0
2551 0
2552 0
2553 0
2554 0
2555 0
2556 0
2558 0
2559 0
2560 0
2561 0
2562 0
2563 0
2564 6286.0654148442218
2565 78.52053789601689
2566 56.654233880530413
2572 0
2573 0
2574 4.2317622209640069
2575 393.94993845941656
2576 0
2577 34.414291006701347
2578 0
2581 0
2582 0
2583 0
2584 0
2585 0
2586 0
2587 0
2588 0
2589 0
2590 843.96535469546063
2591 0
2592 0
2593 0
2594 0
2595 0
2596 0
2597 0
2598 0
2599 0
2600 0
2601 0
2602 0
2603 4526.0961510439756
2604 4609.7119824966321
2606 105.20247203821941
2607 0
2608 0
2609 0
2610 0
2611 0
2612 0
2613 0
2614 0
2615 0
2616 0
2617 437.32523485630441
2618 0
2619 0
2620 0
2621 0
2622 0
2623 0
2624 0
2625 0
2626 0
2627 2406.0994099005929
2630 0
2631 0
2632 0
2633 0
2634 0
2635 0
2636 0
2637 0
2638 0
2639 0
2640 0
2641 0
2642 0
2643 0
2644 0
2645 0
2647 0
2654 67.656997364723253
2655 9938.5728370874385
2657 1382.9735437000165
2658 5.2193912431915006
2660 0
2661 0
2662 0
2663 0
2664 0
2665 0
2666 0
2667 0
2668 0
2669 0
2670 0
2671 0
2672 0
2673 0
2674 0
2675 0
2676 0
2677 0
2678 0
2679 3637.7458760843665
2684 73.863993441055314
2685 63.549862660986108
2690 19.272140396656226
2695 0
2696 0
2697 2316.3413941964527
2698 9.0446980866947033
2699 0
2700 0
2701 0
2702 0
2703 0
2704 0
2705 0
2706 0
2707 0
2708 0
2709 0
2710 0
2711 1497.6705758062249
2714 4817.1618383324721
2716 0
2717 0
2718 0
2719 0
2720 0
2721 0
2722 0
2723 0
2724 0
2725 0
2726 0
2727 0
2728 0
2729 0
2730 0
2731 0
2733 0
2734 0
2735 0
2736 0
2737 0
2739 0
2740 0
2742 0
2743 0
2744 0
2745 0
2746 0
2747 0
2748 0
2749 0
2750 0
2751 0
2752 0
2753 0
2754 0
2755 0
2756 0
2757 0
2758 0
2759 0
2760 0
2761 0
2762 0
2763 0
2764 0
2765 0
2766 0
2767 0
2768 0
2769 0
2770 0
2771 0
2772 8.8507189302146898
2773 0
2774 0
2775 0
2776 0
2777 0
2778 0
2779 0
2780 0
2781 0
2782 0
2783 0
2784 0
2785 0
2786 0
2787 0
2788 0
2789 0
2790 0
2791 0
2793 0
2794 0
2795 0
2796 0
2797 0
2798 0
2799 0
2800 0
2801 0
2802 0
2803 0
2804 9159.0669361981327
2805 2156.5260371742179
2806 187.73020793971386
2807 0
2809 0
2810 0
2811 0
2812 0
2813 0
2814 0
2815 0
2816 0
2817 0
2819 0
2820 0
2821 0
2822 0
2823 0
2824 0
2825 0
2826 0
2827 0
2828 0
2829 0
2830 0
2831 0
2832 0
2833 0
2834 0
2835 0
2836 0
2837 0
2838 0
2839 0
2840 0
2841 0
2842 0
2843 0
2844 0
2845 0
2846 0
2847 0
2848 0
2849 0
2850 0
2851 0
2852 0
2853 0
2854 0
2855 1118.7236001232409
2856 0
2857 0
2858 0
2859 5264.451292139308
2860 0
2861 0
2862 0
2863 0
2864 0
2865 0
2866 0
2867 0
2868 0
2869 0
2870 0
2871 0
2872 0
2873 0
2874 0
2875 0
2876 0
2877 0
2878 0
2879 0
2880 0
2881 0
2882 0
2883 0
2884 0
2885 0
2886 0
2887 0
2890 0
2891 0
2892 0
2893 0
2894 0
2895 0
2896 0
2897 0
2898 0
2899 0
2900 0
2901 0
2902 0
2903 0
2904 0
2905 0
2906 0
2907 0
2908 0
2909 0
2910 0
2911 0
2912 0
2913 0
2914 0
2915 0
2916 0
2917 0
2918 0
2919 0
2920 6.5660012366967706
2922 3.9205681017957001
2923 0
2924 0
2925 0
2926 0
2927 0
2928 0
2929 0
2931 0
2932 0
2933 0
2934 0
2935 0
2936 0
2937 0
2938 2264.2193430319853
2939 0
2940 0
2941 0
2942 0
2943 0
2944 0
2945 0
2947 346.68609978481976
2948 0
2949 0
2950 0
2951 0
2952 0
2953 0
2954 0
2955 0
2956 0
2957 0
2958 0
2963 0
2964 0
2965 0
2966 415.0685517074096
2968 169.5292756313049
2970 114.94130537625769
2971 0
2972 0
2973 0
2974 0
2975 0
2976 0
2977 0
2979 0
2980 0
2981 0
2982 0
2983 0
2984 0
2985 0
2986 0
2987 0
2988 0
2989 0
2990 0
2991 0
2992 0
2993 0
2994 0
2995 0
2996 0
2997 0
2998 0
2999 0
3000 0
3001 0
3002 0
3007 0
3008 0
3009 0
3010 0
3011 0
3012 0
3013 0
3014 0
3015 0
3016 0
3017 0
3018 0
3019 0
3020 0
3021 0
3022 0
3023 0
3024 0
3025 0
3026 0
3027 0
3028 0
3029 0
3030 0
3031 0
3032 0
3034 0
3035 0
3036 0
3037 0
3039 0
3040 0
3041 0
3042 0
3043 0
3044 0
3045 0
3046 16785.728225135357
3047 0
3048 0
3049 0
3050 0
3051 0
3052 0
3053 0
3054 0
3055 0
3056 0
3057 0
3058 0
3059 185.38340765192072
3060 0
3061 0
3064 0
3065 0
3066 0
3067 0
3068 0
3069 0
3070 0
3071 0
3072 0
3073 0
3074 0
3075 0
3076 0
3077 0
3078 0
3079 0
3080 0
3081 0
3082 0
3083 0
3085 0
3086 0
3087 0
3088 0
3089 0
3090 0
3091 0
3092 0
3095 0
3096 0
3097 0
3098 0
3099 0
3100 0
3101 0
3102 0
3103 0
3104 0
3105 0
3106 0
3107 0
3110 24.080237646533423
3111 0
3112 0
3113 0
3114 0
3115 0
3116 0
3117 0
3118 0
3119 0
3120 0
3121 0
3122 0
3123 15.352666032141045
3124 0
3125 0
3126 0
3127 0
3128 0
3129 2347.024378352864
3131 137.19298532491109
3132 0
3133 0
3134 0
3135 0
3139 0
3140 0
3142 0
3143 0
3144 0
3145 0
3146 0
3147 0
3148 0
3149 0
3150 0
3151 0
3152 0
3153 0
3154 0
3155 0
3156 0
3157 0
3158 0
3160 26.125709027669046
3161 0
3162 0
3163 0
3164 0
3165 0
3166 0
3167 0
3168 0
3169 0
3170 0
3171 0
3172 0
3173 0
3174 0
3175 0
3176 0
3177 0
3178 0
3179 0
3180 0
3181 0
3182 0
3183 0
3184 0
3185 0
3186 0
3187 0
3188 0
3189 0
3190 0
3191 0
3192 0
3193 0
3194 0
3195 0
3196 0
3197 0
3198 0
3199 0
3200 0
3201 0
3202 0
3203 0
3204 0
3205 0
3206 0
3207 0
3209 0
3210 0
3211 0
3212 0
3213 0
3214 0
3215 0
3216 0
3217 0
3218 0
3219 0
3220 0
3221 0
3222 0
3223 0
3224 0
3225 0
3226 0
3227 0
3228 0
3229 0
3231 0
3232 0
3233 0
3234 0
3235 0
3236 0
3237 0
3240 0
3241 0
3242 0
3243 0
3244 0
3245 0
3246 0
3247 0
3248 0
3249 0
3250 0
3251 0
3252 0
3253 0
3254 0
3255 0
3256 0
3258 0
3259 0
3260 0
3261 0
3262 0
3263 0
3264 0
3265 0
3266 0
3267 0
3268 0
3269 0
3270 0
3271 0
3272 0
3273 0
3274 0
3275 0
3276 0
3277 0
3278 0
3279 0
3280 0
3281 0
3282 0
3283 0
3284 0
3285 0
3287 0
3288 0
3289 0
3290 0
3291 0
3292 0
3293 0
3294 0
3295 0
3296 0
3297 0
3298 0
3299 0
3300 0
3301 0
3302 0
3303 0
3304 0
3305 0
3306 0
3307 0
3308 0
3309 0
3310 0
3311 0
3312 0
3313 0
3314 0
3315 0
3316 0
3317 0
3318 0
3319 0
3320 0
3321 0
3323 0
3324 0
3325 0
3326 0
3327 0
3328 0
3329 0
3330 0
3331 0
3333 0
3334 0
3338 0
3339 0
3340 0
3341 0
3342 0
3343 0
3344 2653.7459097160308
3345 0
3346 0
3347 0
3348 0
3349 0
3350 0
3352 0
3353 0
3354 0
3355 0
3356 0
3357 0
3358 0
3359 0
3360 0
3361 0
3362 0
3363 0
3364 0
3365 0
3366 0
3367 0
3368 0
3369 0
3370 0
3371 0
3372 0
3373 0
3374 0
3375 0
3376 0
3377 0
3378 0
3379 0
3380 0
3381 0
3382 0
3383 0
3384 0
3385 0
3386 0
3387 0
3388 0
3389 0
3390 0
3391 0
3392 0
3393 0
3394 0
3395 0
3396 0
3397 0
3398 0
3399 0
3400 0
3401 0
3402 0
3404 0
3405 0
3406 0
3407 0
3408 0
3410 0
3411 0
3412 0
3413 0
3414 0
3415 0
3416 0
3417 0
3418 0
3419 0
3421 0
3422 0
3423 0
3424 0
3425 0
3426 0
3427 0
3428 0
3429 0
3430 0
3431 0
3432 0
3434 483.58033810784787
3436 0
3437 0
3438 0
3439 0
3440 0
3441 0
3442 0
3444 379.78435758868261
3446 0
3447 0
3448 0
3449 0
3450 0
3451 5642.3946829738516
3452 0
3453 0
3454 0
3455 0
3456 0
3457 0
3459 0
3460 0
3461 0
3462 0
3463 0
3464 0
3465 0
3466 0
3467 0
3468 0
3470 0
3471 0
3472 0
3473 0
3474 0
3475 0
3476 0
3477 0
3478 0
3479 0
3480 0
3481 630.98762438394965
3482 0
3483 0
3484 0
3486 0
3487 0
3488 0
3489 0
3490 0
3491 0
3492 0
3493 0
3494 0
3495 0
3496 2315.9999999999991
3497 0
3498 0
3500 2443.2012220851329
3508 2675.4853583392487
3509 0
3510 0
3511 0
3512 0
3513 0
3514 0
3515 0
3516 0
3518 0
3519 0
3520 0
3521 0
3522 0
3523 0
3524 0
3525 0
3526 0
3527 0
3528 0
3529 0
3530 0
3531 0
3532 0
3533 0
3534 0
3536 0
3537 0
3538 0
3539 0
3540 0
3541 0
3542 0
3543 0
3544 0
3545 0
3546 0
3547 0
3548 0
3549 0
3550 0
3551 0
3552 0
3553 0
3554 0
3555 0
3556 0
3557 0
3558 0
3559 0
3560 0
3561 0
3562 0
3563 0
3564 0
3565 0
3566 0
3567 0
3568 0
3569 0
3570 0
3571 0
3572 0
3573 0
3574 0
3575 0
3576 0
3577 0
3578 0
3579 0
3580 0
3582 0
3583 0
3584 0
3585 0
3586 0
3587 0
3588 0
3589 0
3590 0
3591 0
3592 0
3593 0
3594 0
3595 0
3596 0
3597 0
3598 0
3599 0
3600 0
3601 0
3603 0
3604 0
3605 0
3606 0
3607 0
3608 0
3611 0
3612 0
3613 0
3614 0
3615 0
3616 0
3617 0
3618 0
3619 0
3620 0
3621 0
3622 0
3623 0
3624 0
3625 0
3626 0
3627 0
3628 0
3629 0
3630 0
3631 0
3632 0
3634 0
3635 0
3636 0
3637 0
3638 0
3639 0
3640 4798.6445963248525
3641 0
3642 0
3643 21.51286220155971
3644 0
3645 0
3646 0
3647 0
3648 10.923098047732759
3652 857.27442734945987
3657 0
3658 0
3659 0
3660 0
3661 0
3662 0
3663 0
3664 1.2361111111111112
3665 0
3666 0
3667 0
3668 0
3669 0
3670 0
3671 0
3672 3577.6440233192457
3673 0
3674 0
3675 0
3677 0
3678 0
3679 0
3680 0
3681 0
3682 2170.1132762584502
3683 0
3684 0
3685 0
3686 0
3687 0
3693 0
3694 0
3695 0
3696 0
3697 0
3698 0
3699 0
3700 0
3701 0
3702 0
3703 0
3704 0
3705 0
3706 0
3707 0
3708 0
3709 0
3710 0
3711 0
3712 1325.235343761708
3714 0
3717 0
3718 0
3719 0
3720 0
3723 0
3724 0
3725 0
3726 0
3727 0
3728 0
3729 0
3730 0
3731 0
3732 0
3733 0
3737 0
3738 0
3739 0
3740 0
3741 0
3742 0
3743 0
3744 0
3745 0
3746 0
3747 0
3748 0
3749 0
3750 0
3751 0
3753 0
3754 0
3755 0
3756 0
3757 0
3758 0
3759 0
3760 0
3761 0
3762 0
3763 0
3764 0
3765 0
3766 0
3767 0
3768 0
3770 0
3771 0
3772 0
3773 0
3774 0
3775 0
3776 0
3777 0
3778 0
3779 0
3780 0
3781 0
3782 0
3783 0
3784 0
3785 0
3786 0
3787 0
3788 0
3789 0
3790 0
3791 0
3792 0
3793 0
3794 0
3795 0
3796 0
3797 0
3798 0
3799 0
3800 5159.1062700562979
3801 0
3802 0
3803 0
3804 0
3805 0
3806 0
3807 0
3808 0
3809 0
3810 0
3811 0
3812 0
3813 0
3814 0
3815 0
3816 0
3818 0
3819 0
3820 0
3821 0
3822 0
3823 0
3825 0
3826 0
3827 0
3828 0
3829 0
3830 0
3831 0
3832 0
3833 0
3834 0
3835 0
3836 0
3837 0
3838 0
3839 0
3840 0
3841 0
3842 0
3843 0
3844 0
3845 0
3846 0
3847 0
3848 0
3849 0
3850 0
3851 0
3852 0
3853 0
3854 38.163954405591959
3855 0
3856 0
3857 0
3858 0
3859 0
3860 0
3861 0
3862 0
3863 0
3864 0
3865 0
3866 0
3867 0
3868 0
3869 0
3870 0
3871 0
3872 0
3873 0
3874 0
3875 0
3876 0
3877 0
3878 0
3879 0
3880 0
3881 0
3882 0
3883 0
3884 0
3886 0
3887 0
3888 0
3889 0
3890 0
3892 0
3893 0
3894 0
3895 0
3896 0
3897 0
3898 0
3899 0
3900 0
3901 0
3902 0
3903 0
3904 0
3905 0
3906 0
3907 0
3908 0
3910 0
3911 0
3912 0
3913 37.492648497152452
3914 652.69388660958441
3916 278.2191205326792
3918 48.212672771904224
3919 5164.5556979423454
3921 0
3922 0
3923 0
3924 0
3926 0
3927 0
3928 0
3929 0
3930 0
3931 0
3932 0
3933 0
3934 0
3935 0
3936 0
3937 0
3938 0
3939 0
3940 0
3941 0
3942 0
3943 0
3944 0
3945 0
3946 0
3947 0
3949 0
3950 0
3954 3.1653992795423518
3959 0
3960 0
3961 0
3963 0
3964 0
3965 0
3966 0
3967 0
3968 0
3969 0
3970 0
3971 0
3972 0
3973 0
3974 0
3975 0
3976 0
3977 0
3978 0
3979 0
3980 0
3981 0
3982 0
3983 0
3984 0
3986 0
3987 0
3988 0
3989 0
3991 0
3992 0
3993 0
3994 0
3995 0
3996 0
3997 0
3998 0
3999 0
4000 0
4001 0
4002 0
4004 0
4005 0
4006 0
4007 0
4008 0
4009 0
4010 0
4011 0
4012 0
4013 0
4014 0
4015 0
4016 0
4017 0
4018 0
4019 0
4020 0
4021 0
4022 0
4023 0
4024 0
4025 0
4026 0
4028 0
4029 0
4030 0
4031 0
4032 0
4033 0
4034 0
4035 0
4036 0
4037 0
4038 0
4039 0
4040 0
4041 0
4042 0
4043 0
4044 0
4045 0
4046 0
4047 0
4048 0
4049 0
4050 0
4051 0
4052 0
4053 0
4054 0
4055 0
4056 0
4057 0
4058 0
4059 0
4060 0
4061 0
4062 0
4063 0
4064 0
4065 0
4066 0
4067 0
4068 0
4069 0
4070 0
4072 0
4073 0
4074 0
4075 0
4076 0
4077 0
4078 0
4079 0
4080 0
4081 0
4082 0
4083 0
4084 0
4085 0
4086 0
4087 0
4088 0
4089 0
4090 0
4091 0
4092 0
4093 0
4094 0
4095 0
4096 0
4097 0
4098 0
4099 0
4100 0
4101 0
4102 0
4103 0
4104 0
4105 0
4106 0
4107 0
4108 0
4109 0
4110 0
4111 0
4112 0
4114 0
4115 0
4116 0
4117 0
4118 0
4119 0
4120 0
4121 0
4122 0
4123 0
4124 0
4125 0
4126 0
4127 0
4128 0
4129 0
4130 0
4131 0
4132 0
4133 0
4134 0
4135 0
4136 0
4137 0
4138 0
4139 0
4140 0
4141 0
4142 0
4143 0
4144 0
4145 0
4146 0
4147 0
4148 0
4149 0
4150 0
4151 0
4152 0
4153 0
4154 0
4155 0
4156 0
4157 0
4158 0
4159 0
4160 0
4161 0
4162 0
4163 0
4164 0
4165 0
4166 0
4167 0
4168 0
4169 0
4170 0
4171 0
4172 0
4173 0
4174 0
4175 0
4176 0
4177 0
4178 0
4179 0
4180 0
4181 0
4182 0
4183 0
4184 0
4185 0
4186 0
4187 0
4188 0
4189 0
4190 0
4191 0
4192 0
4193 0
4194 0
4195 0
4196 0
4197 0
4198 0
4199 0
4200 0
4201 0
4202 0
4203 0
4204 0
4205 0
4207 0
4208 0
4210 0
4211 0
4212 0
4213 0
4214 0
4215 0
4216 0
4217 0
4218 0
4220 15.02785886004758
4221 0
4222 0
4223 0
4224 0
4225 0
4226 0
4227 0
4228 0
4229 0
4230 0
4231 0
4232 0
4233 0
4234 0
4235 0
4236 0
4237 0
4238 0
4239 0
4240 0
4241 0
4245 8.4961976128816978
4246 0
4247 0
4248 0
4249 0
4251 17.791259858706233
4255 0
4257 0
4258 0
4259 0
4260 0
4261 0
4262 0
4263 0
4264 0
4265 0
4266 0
4267 0
4268 0
4269 0
4270 0
4271 0
4272 0
4273 0
4274 0
4275 0
4276 0
4277 0
4278 0
4279 0
4280 0
4281 0
4282 0
4283 0
4284 0
4285 0
4286 0
4287 0
4288 0
4289 0
4290 0
4291 0
4292 0
4293 0
4294 0
4295 0
4296 0
4297 0
4298 0
4299 0
4300 0
4301 0
4302 0
4303 0
4304 0
4305 0
4306 0
4307 0
4308 0
4309 0
4310 0
4311 0
4312 0
4313 0
4314 0
4315 0
4316 0
4317 0
4319 0
4320 0
4321 0
4322 0
4323 0
4326 0
4327 0
4328 0
4329 0
4331 0
4332 0
4333 0
4334 0
4335 0
4336 0
4339 0
4340 0
4341 2316.0000000000005
4342 0
4343 0
4344 0
4345 0
4346 0
4347 0
4348 0
4349 0
4350 0
4351 0
4352 0
4353 0
4354 0
4355 0
4356 0
4357 0
4358 0
4359 0
4360 0
4361 0
4362 0
4363 0
4364 0
4365 0
4366 0
4367 0
4368 0
4369 0
4370 0
4371 0
4372 0
4373 0
4374 0
4375 0
4376 0
4378 0
4379 0
4380 0
4381 0
4382 0
4383 0
4384 0
4385 0
4386 0
4387 0
4388 0
4389 0
4390 0
4391 0
4392 0
4393 0
4394 0
4395 0
4396 0
4397 0
4398 0
4399 0
4400 0
4401 0
4402 0
4403 0
4404 0
4405 0
4406 0
4407 0
4408 0
4409 0
4410 0
4411 0
4412 1.6168593647322693
4414 22.889397328560072
4415 0
4416 0
4417 0
4418 0
4419 0
4420 0
4421 0
4422 0
4423 0
4424 0
4425 0
4426 0
4427 0
4428 0
4429 0
4430 0
4431 0
4432 0
4433 0
4434 0
4435 0
4436 0
4437 0
4438 0
4439 0
4440 0
4441 0
4442 0
4443 0
4444 0
4445 0
4446 0
4447 0
4449 0
4450 0
4451 0
4452 0
4453 0
4454 0
4455 0
4456 0
4457 0
4458 0
4459 0
4460 0
4461 0
4462 0
4463 0
4464 0
4465 0
4466 0
4467 0
4468 0
4469 0
4470 0
4471 0
4473 0
4474 0
4475 0
4476 0
4477 0
4478 0
4479 0
4481 0
4482 0
4483 0
4485 0
4486 0
4487 0
4488 0
4489 0
4490 0
4491 0
4492 0
4493 0
4494 0
4495 0
4496 0
4497 0
4498 0
4499 0
4500 0
4501 0
4502 0
4503 0
4504 0
4505 0
4506 0
4507 0
4508 0
4509 0
4510 0
4511 0
4512 0
4513 0
4514 0
4515 0
4516 0
4517 0
4518 0
4519 0
4520 0
4521 0
4523 0
4524 0
4525 0
4526 0
4527 0
4528 0
4529 0
4530 0
4531 0
4532 0
4533 0
4534 0
4535 0
4536 0
4537 0
4538 0
4539 0
4540 0
4541 0
4542 0
4543 0
4545 0
4546 0
4547 0
4548 0
4549 0
4550 0
4551 0
4552 0
4553 0
4554 0
4555 0
4556 0
4557 0
4558 0
4559 0
4560 0
4561 0
4562 0
4563 0
4564 0
4565 0
4566 0
4567 0
4568 0
4569 0
4570 0
4571 0
4572 0
4573 0
4575 0
4576 0
4577 0
4578 0
4579 0
4580 3.348090640974382
4581 1506.4342251640828
4584 0
4585 0
4586 0
4587 0
4588 0
4589 0
4590 0
4591 0
4592 0
4593 0
4594 0
4595 0
4596 0
4597 0
4598 0
4599 0
4600 0
4601 0
4602 0
4603 0
4604 0
4605 0
4606 0
4607 0
4608 0
4609 0
4610 0
4611 0
4612 0
4613 0
4614 0
4615 0
4616 0
4617 0
4618 0
4619 0
4620 0
4621 0
4622 6965.1753994415885
4623 0
4625 0
4627 0
4629 0
4630 0
4631 0
4632 0
4633 0
4634 0
4635 0
4636 0
4637 0
4638 0
4639 0
4640 0
4641 0
4642 0
4643 0
4645 0
4646 0
4647 0
4649 0
4650 0
4651 0
4652 0
4653 0
4654 0
4655 0
4656 0
4657 0
4658 0
4659 0
4660 0
4661 0
4662 0
4663 0
4664 0
4665 0
4666 0
4667 0
4668 0
4669 0
4670 0
4671 0
4672 0
4673 0
4674 0
4675 0
4676 0
4677 0
4678 0
4680 0
4681 0
4682 0
4683 0
4684 0
4685 0
4686 0
4687 0
4688 0
4689 0
4690 0
4691 0
4692 0
4693 0
4694 0
4695 0
4696 0
4697 0
4698 0
4699 0
4700 0
4701 0
4702 0
4703 0
4704 0
4705 0
4706 0
4707 0
4708 0
4709 0
4710 0
4712 0
4713 0
4714 0
4715 0
4716 0
4717 0
4718 0
4719 0
4720 0
4721 0
4722 0
4723 0
4724 0
4725 0
4726 0
4727 0
4728 0
4729 0
4730 0
4731 0
4732 0
4733 0
4734 0
4735 0
4736 0
4737 0
4738 0
4740 0
4741 0
4742 0
4743 0
4744 0
4745 0
4746 0
4747 0
4748 0
4749 0
4750 0
4751 0
4752 0
4753 0
4754 0
4755 0
4756 0
4757 0
4758 0
4759 0
4760 0
4761 0
4762 0
4763 0
4764 0
4765 0
4766 0
4767 0
4768 0
4769 0
4770 0
4771 0
4773 0
4774 0
4775 0
4776 0
4777 0
4778 0
4779 0
4780 0
4781 0
4782 0
4783 0
4784 0
4785 0
4786 0
4787 0
4788 0
4789 0
4790 0
4791 0
4792 5158
4793 0
4794 0
4795 0
4796 0
4797 0
4798 0
4799 0
4800 0
4801 0
4802 0
4803 0
4804 0
4805 0
4806 0
4807 0
4808 0
4809 0
4810 0
4811 0
4812 0
4813 0
4814 0
4815 0
4816 0
4817 0
4818 0
4819 0
4822 0
4823 0
4824 0
4825 0
4826 0
4827 0
4828 0
4829 0
4830 0
4831 0
4832 0
4833 0
4834 0
4835 0
4836 0
4837 0
4838 0
4839 0
4840 0
4841 0
4842 0
4843 0
4844 0
4845 0
4846 0
4847 0
4848 0
4849 0
4850 0
4851 0
4852 0
4854 0
4855 0
4856 0
4857 0
4858 0
4859 0
4860 0
4861 0
4862 0
4863 0
4864 0
4865 0
4866 0
4867 0
4868 0
4869 0
4870 0
4871 0
4872 0
4873 0
4874 0
4875 0
4876 0
4877 0
4878 0
4879 0
4880 0
4881 0
4882 0
4883 0
4884 0
4885 0
4886 0
4887 0
4888 0
4889 0
4890 0
4892 0
4893 0
4894 0
4895 0
4896 0
4897 0
4898 0
4899 0
4900 0
4901 0
4902 0
4903 0
4904 0
4905 0
4906 0
4907 0
4908 0
4909 0
4910 0
4912 0
4914 0
4916 0
4917 0
4918 0
4919 0
4920 0
4921 0
4922 0
4923 0
4924 0
4925 0
4926 0
4927 0
4928 0
4929 0
4930 0
4931 0
4932 0
4933 0
4934 0
4935 0
4936 0
4937 0
4938 0
4939 0
4940 0
4942 0
4945 0
4946 0
4949 0
4950 0
4951 0
4952 0
4953 0
4954 0
4955 0
4956 0
4957 0
4958 0
4959 0
4960 0
4961 0
4962 0
4963 0
4964 0
4965 0
4966 0
4967 0
4968 0
4969 0
4970 0
4971 0
4972 0
4973 0
4974 0
4975 0
4976 0
4977 0
4978 0
4979 0
4980 0
4981 0
4982 0
4983 0
4984 0
4985 0
4986 0
4987 0
4988 0
4989 0
4990 0
4991 0
4992 0
4993 0
4994 0
4995 0
4996 0
4997 0
4998 0
4999 0
5000 0
5001 0
5002 0
5003 0
5004 0
5005 0
5006 0
5007 0
5008 0
5009 0
5010 0
5011 0
5012 0
5014 0
5015 0
5016 0
5017 0
5018 0
5019 0
5020 0
5021 0
5022 0
5023 0
5024 0
5025 0
5026 0
5027 0
5028 0
5029 0
5030 0
5031 0
5032 0
5033 0
5034 0
5035 0
5036 0
5037 0
5038 0
5039 0
5040 0
5041 0
5042 0
5043 0
5044 0
5045 0
5046 0
5047 0
5048 0
5049 0
5050 0
5051 0
5052 0
5053 0
5054 0
5055 0
5056 0
5057 0
5059 0
5060 0
5061 0
5062 0
5063 0
5064 0
5065 0
5066 0
5067 0
5068 0
5069 0
5070 0
5071 0
5072 0
5073 0
5074 0
5075 0
5076 0
5077 0
5078 0
5079 0
5080 0
5081 0
5082 0
5083 0
5084 0
5085 0
5086 0
5087 0
5088 0
5089 0
5090 0
5091 0
5092 0
5093 0
5095 0
5096 0
5097 0
5098 0
5099 0
5100 0
5101 0
5102 0
5103 0
5104 0
5105 0
5106 0
5107 0
5108 0
5109 0
5110 0
5111 0
5112 0
5114 0
5115 0
5118 0
5120 0
5121 0
5122 0
5123 0
5124 0
5125 0
5126 0
5127 0
5128 0
5129 0
5130 0
5131 0
5132 0
5133 0
5134 0
5135 0
5136 0
5137 0
5138 0
5139 0
5140 0
5141 0
5142 0
5143 0
5144 0
5145 0
5146 0
5147 0
5148 0
5149 0
5150 0
5151 0
5152 0
5153 0
5154 0
5155 0
5156 0
5157 0
5158 0
5159 0
5160 0
5162 0
5163 0
5164 0
5165 0
5166 0
5167 0
5168 0
5169 0
5170 0
5172 0
5173 0
5174 0
5175 0
5176 0
5177 0
5178 0
5179 0
5180 0
5181 0
5182 0
5183 0
5184 0
5185 0
5186 0
5187 0
5188 0
5189 0
5190 0
5191 0
5192 0
5193 0
5194 0
5195 0
5196 0
5197 0
5198 0
5199 0
5200 0
5201 0
5202 0
5204 0
5205 0
5206 0
5207 0
5208 0
5209 0
5210 0
5211 0
5212 0
5213 0
5214 0
5215 0
5216 0
5218 40.908984881629472
5219 0
5220 0
5223 0
5224 0
5225 0
5226 0
5227 0
5228 0
5229 16.548938153934152
5230 0
5231 0
5232 0
5233 0
5234 0
5235 0
5236 0
5237 0
5238 0
5239 0
5240 0
5241 0
5242 0
5243 0
5244 0
5245 0
5246 0
5247 0
5248 0
5249 0
5250 0
5251 0
5252 0
5253 0
5254 0
5255 0
5256 0
5257 0
5258 0
5259 0
5260 0
5261 0
5262 0
5263 0
5264 0
5265 0
5266 0
5267 0
5268 0
5269 0
5270 0
5271 0
5272 0
5273 0
5275 0
5276 0
5277 0
5278 0
5279 0
5280 0
5281 0
5282 0
5283 0
5284 0
5285 0
5288 0
5289 0
5290 0
5291 0
5292 0
5293 0
5294 0
5295 0
5296 0
5297 0
5298 0
5299 0
5300 0
5301 0
5302 0
5303 0
5305 0
5306 0
5308 31.363086772421273
5309 0
5310 0
5311 0
5312 0
5313 0
5314 0
5315 0
5316 0
5317 0
5318 0
5319 0
5320 0
5321 0
5322 0
5323 0
5324 0
5325 0
5326 0
5327 0
5328 0
5329 0
5330 0
5333 0
5334 0
5335 0
5336 0
5337 0
5338 0
5339 0
5340 0
5341 0
5342 0
5343 0
5344 0
5345 0
5346 0
5347 0
5348 0
5349 0
5350 0
5351 440.96126831839439
5352 0
5353 0
5354 0
5355 0
5356 0
5357 0
5358 0
5362 0
5363 0
5364 0
5365 0
5366 0
5367 0
5368 0
5369 0
5370 0
5371 0
5372 28.911437649664936
5373 0
5374 0
5375 0
5376 0
5377 0
5378 0
5379 0
5380 0
5381 0
5382 0
5383 0
5384 0
5385 0
5386 0
5388 0
5389 0
5390 0
5391 0
5392 0
5393 0
5394 0
5395 0
5396 0
5397 0
5398 0
5399 0
5400 0
5401 0
5402 0
5403 0
5404 0
5405 0
5406 0
5407 0
5408 0
5409 0
5410 0
5411 0
5412 0
5413 0
5414 0
5415 0
5416 0
5417 0
5418 0
5419 0
5420 0
5421 0
5422 0
5423 0
5424 0
5425 0
5426 0
5427 0
5428 0
5429 0
5430 0
5431 0
5432 0
5433 0
5434 0
5435 0
5436 0
5437 0
5438 0
5439 0
5440 0
5441 0
5442 0
5443 0
5444 0
5445 0
5446 0
5447 0
5448 0
5449 0
5450 0
5451 0
5452 0
5453 0
5454 0
5455 0
5456 0
5457 0
5458 0
5459 0
5460 0
5461 0
5462 0
5463 0
5464 0
5465 0
5466 0
5467 0
5468 0
5469 0
5470 0
5471 0
5472 0
5473 0
5474 0
5475 0
5476 0
5477 0
5478 0
5479 0
5480 0
5481 0
5482 0
5484 0
5485 0
5486 0
5487 0
5488 0
5489 0
5490 0
5491 0
5492 0
5493 0
5494 0
5495 0
5496 0
5499 0
5500 0
5501 0
5502 0
5503 0
5504 0
5505 0
5506 0
5507 0
5508 0
5509 0
5510 0
5511 0
5512 0
5513 0
5514 0
5515 0
5516 0
5517 0
5518 0
5519 0
5520 0
5521 0
5522 0
5523 0
5524 0
5525 0
5526 0
5527 0
5528 0
5529 0
5530 0
5531 0
5532 0
5533 0
5534 0
5535 0
5536 0
5537 0
5538 0
5539 0
5540 0
5541 0
5542 0
5543 5.7308407728542363
5544 0
5545 0
5546 0
5547 0
5548 0
5549 0
5550 0
5551 0
5552 0
5553 0
5554 0
5555 0
5556 0
5557 0
5558 0
5559 0
5560 0
5561 0
5562 0
5563 0
5564 0
5565 0
5566 0
5567 0
5568 0
5569 0
5570 0
5571 0
5572 0
5573 0
5574 0
5575 0
5576 0
5577 0
5578 0
5579 0
5580 0
5581 0
5582 0
5583 0
5584 0
5585 0
5586 0
5587 0
5588 0
5589 0
5590 0
5591 0
5592 0
5593 0
5594 0
5595 0
5596 0
5597 0
5598 0
5599 0
5600 0
5601 0
5602 0
5603 0
5604 0
5605 0
5606 0
5608 0
5609 0
5610 0
5611 0
5612 0
5613 0
5614 0
5615 0
5616 0
5617 0
5618 0
5619 0
5620 0
5621 0
5623 0
5624 0
5625 0
5626 0
5627 0
5628 0
5629 0
5630 0
5631 0
5632 0
5633 0
5634 0
5635 0
5636 0
5637 0
5638 0
5640 0
5641 0
5642 0
5643 0
5644 0
5645 0
5646 0
5647 0
5648 0
5649 0
5650 0
5651 0
5652 0
5653 0
5654 0
5655 0
5656 0
5657 0
5658 0
5659 0
5660 0
5661 0
5662 0
5663 0
5664 0
5665 0
5666 0
5667 0
5668 0
5669 0
5670 0
5671 0
5672 0
5673 0
5674 0
5675 0
5676 0
5677 0
5678 0
5679 0
5680 0
5681 0
5682 0
5683 0
5685 0
5686 0
5687 0
5688 0
5689 0
5690 0
5691 0
5692 0
5693 0
5694 0
5695 0
5696 0
5697 0
5698 0
5699 0
5701 3.3974291933499221
5702 0
5703 0
5706 0
5707 0
5708 0
5711 0
5713 0
5714 0
5715 0
5717 0
5718 0
5719 0
5720 0
5721 0
5722 0
5723 0
5724 0
5725 0
5726 0
5727 0
5728 0
5729 0
5730 0
5731 0
5732 0
5733 0
5734 0
5735 0
5736 0
5738 0
5739 0
5740 0
5741 0
5742 0
5743 0
5744 0
5745 0
5746 0
5747 0
5748 0
5749 0
5750 0
5751 0
5752 0
5753 0
5754 0
5755 0
5756 0
5757 0
5758 0
5759 0
5760 0
5761 0
5762 0
5763 0
5764 0
5765 0
5766 0
5767 0
5768 0
5769 0
5770 0
5771 0
5772 0
5773 0
5774 0
5775 0
5776 0
5777 0
5778 0
5779 0
5780 0
5781 0
5782 0
5783 0
5784 0
5785 0
5786 0
5787 0
5788 0
5789 0
5790 0
5791 0
5792 0
5793 0
5794 0
5795 0
5797 0
5798 0
5799 0
5800 0
5801 0
5802 0
5803 0
5804 0
5805 0
5806 0
5807 0
5808 0
5809 0
5810 0
5811 0
5813 0
5815 0
5817 0
5818 0
5820 0
5821 0
5822 0
5823 0
5824 0
5825 0
5826 0
5827 0
5828 0
5829 0
5830 0
5831 0
5832 0
5833 0
5834 0
5835 0
5836 0
5837 0
5838 0
5839 0
5840 0
5841 0
5842 0
5843 0
5844 0
5845 0
5846 0
5847 0
5848 0
5849 0
5850 0
5851 0
5852 0
5853 0
5854 0
5855 0
5856 0
5857 0
5858 0
5859 0
5860 0
5861 0
5862 0
5863 0
5864 0
5865 0
5866 0
5867 0
5868 0
5869 0
5870 0
5871 0
5872 0
5873 0
5875 0
5876 0
5877 0
5878 0
5880 0
5881 0
5882 0
5883 0
5884 0
5885 0
5886 0
5887 0
5888 0
5889 0
5890 0
5891 0
5892 0
5893 0
5894 0
5895 0
5896 0
5897 0
5898 0
5899 0
5900 0
5901 0
5902 0
5903 0
5904 0
5905 0
5906 0
5907 0
5908 0
5909 0
5910 0
5911 0
5912 0
5913 0
5914 0
5915 0
5916 0
5917 0
5918 0
5919 0
5920 0
5921 0
5922 0
5923 0
5924 0
5925 0
5926 0
5927 0
5928 0
5929 0
5930 0
5931 0
5932 0
5933 0
5934 0
5935 0
5936 0
5937 0
5938 0
5939 0
5940 0
5941 0
5942 0
5943 0
5944 0
5945 0
5946 0
5947 0
5948 0
5949 0
5950 0
5951 0
5952 0
5953 0
5954 0
5955 0
5956 0
5957 0
5958 0
5959 0
5960 0
5961 0
5963 0
5964 0
5965 0
5966 0
5967 0
5968 0
5969 0
5970 0
5971 0
5973 0
5974 0
5975 0
5976 0
5978 0
5979 0
5980 0
5981 0
5982 0
5983 0
5984 0
5985 0
5986 0
5987 0
5988 0
5989 0
5990 0
5991 0
5992 0
5993 0
5994 0
5995 0
5996 0
5997 0
5998 0
5999 0
6000 0
6001 0
6002 0
6003 0
6004 0
6005 0
6006 0
6008 0
6009 0
6010 0
6011 0
6012 0
6013 0
6014 0
6015 0
6016 0
6017 0
6018 0
6019 0
6020 0
6021 0
6022 0
6023 0
6024 0
6025 0
6026 0
6027 0
6028 0
6029 0
6030 0
6031 0
6032 0
6033 0
6034 0
6035 0
6036 0
6037 0
6038 0
6039 0
6040 0
6041 0
6042 0
6043 0
6044 0
6045 0
6046 0
6047 0
6048 0
6049 0
6051 0
6052 0
6053 0
6054 0
6055 0
6056 0
6057 0
6058 0
6059 0
6060 0
6061 0
6062 0
6063 0
6064 0
6065 0
6066 0
6067 0
6068 0
6069 0
6070 0
6071 0
6072 0
6073 0
6074 0
6076 0
6077 0
6078 0
6079 0
6080 0
6081 0
6082 0
6083 0
6084 0
6085 0
6086 0
6087 0
6088 0
6089 0
6090 0
6091 0
6092 0
6093 0
6094 0
6095 0
6096 0
6097 0
6099 0
6100 0
6101 0
6102 0
6103 0
6104 0
6105 0
6106 0
6107 0
6108 0
6109 0
6110 0
6111 0
6112 0
6113 0
6114 0
6115 0
6116 0
6117 0
6118 0
6119 0
6120 0
6121 0
6122 0
6123 0
6124 0
6125 0
6126 0
6127 0
6128 0
6129 0
6130 0
6131 0
6132 0
6133 0
6134 0
6135 0
6136 0
6137 0
6138 0
6139 0
6140 0
6142 0
6143 0
6144 0
6145 0
6146 0
6147 0
6148 0
6149 0
6150 0
6151 0
6152 0
6153 0
6154 0
6155 0
6156 0
6157 0
6158 0
6159 0
6160 0
6161 0
6162 0
6163 0
6164 0
6165 0
6166 0
6167 0
6168 0
6169 0
6170 0
6171 0
6172 0
6173 0
6174 0
6175 0
6177 0
6178 0
6179 0
6180 0
6181 0
6182 0
6183 0
6184 0
6185 0
6186 0
6187 0
6188 0
6189 0
6190 0
6191 0
6192 0
6193 0
6194 0
6195 0
6196 0
6197 0
6198 0
6199 0
6200 0
6201 0
6202 0
6203 0
6204 0
6205 0
6206 0
6207 0
6208 0
6209 0
6210 0
6211 0
6212 0
6213 0
6214 0
6215 0
6216 0
6217 0
6218 0
6219 0
6220 0
6221 0
6222 0
6223 0
6224 0
6225 0
6226 0
6227 0
6228 0
6229 0
6230 0
6231 0
6232 0
6233 0
6234 0
6235 0
6236 0
6237 0
6238 0
6239 0
6240 0
6241 0
6242 0
6243 0
6244 0
6245 0
6246 0
6247 0
6248 0
6249 0
6250 0
6252 0
6253 0
6254 0
6255 0
6256 0
6257 0
6258 0
6259 0
6260 0
6261 0
6262 2315.7435178856235
6263 0
6264 0
6265 0
6266 0
6267 0
6268 0
6269 0
6270 0
6271 0
6272 0
6273 0
6274 0
6275 0
6276 0
6277 0
6278 0
6279 0
6280 0
6281 0
6282 0
6283 0
6284 0
6285 0
6286 0
6287 0
6288 0
6289 0
6290 0
6291 0
6292 0
6293 0
6294 0
6295 0
6296 0
6297 0
6298 0
6299 0
6300 0
6301 0
6302 0
6303 0
6304 0
6305 0
6306 0
6307 0
6308 0
6309 0
6310 0
6311 0
6312 0
6313 0
6314 0
6315 0
6316 0
6317 0
6318 0
6319 0
6320 0
6321 0
6322 0
6323 0
6324 0
6325 0
6326 0
6327 0
6328 0
6329 0
6330 0
6331 0
6332 0
6333 0
6334 0
6335 0
6336 0
6337 0
6338 0
6339 0
6340 0
6341 0
6342 0
6343 0
6344 0
6345 0
6346 0
6347 0
6348 0
6349 0
6350 0
6351 0
6353 0
6354 0
6358 0
6359 0
6360 0
6361 0
6362 0
6363 0
6364 0
6365 0
6366 0
6367 0
6368 0
6369 0
6370 0
6371 0
6372 0
6373 0
6374 0
6375 0
6376 0
6377 0
6378 0
6379 0
6380 0
6381 0
6382 0
6383 0
6384 0
6385 0
6386 0
6387 0
6388 0
6389 0
6390 0
6391 0
6392 0
6393 0
6394 0
6395 0
6396 0
6397 0
6398 0
6399 0
6400 0
6401 0
6402 0
6403 0
6404 0
6405 0
6406 0
6407 0
6408 0
6409 0
6411 0
6412 0
6413 0
6414 0
6415 0
6416 0
6417 0
6418 0
6419 0
6420 0
6421 0
6422 0
6423 0
6424 0
6425 0
6426 0
6427 0
6428 0
6429 0
6430 0
6431 0
6432 0
6433 0
6434 0
6435 0
6437 0
6438 0
6439 0
6440 0
6441 0
6442 0
6443 0
6444 0
6445 0
6446 0
6447 0
6448 0
6449 0
6450 0
6451 0
6452 0
6453 0
6454 0
6455 0
6456 0
6457 0
6458 0
6459 0
6460 0
6461 0
6462 0
6463 0
6464 0
6465 0
6466 0
6467 0
6468 0
6469 0
6470 0
6471 0
6472 0
6473 0
6474 0
6475 0
6476 0
6477 0
6478 0
6479 0
6480 0
6481 0
6482 0
6483 0
6484 0
6485 0
6486 0
6487 0
6488 0
6489 0
6490 0
6491 0
6492 0
6493 0
6494 0
6495 0
6496 0
6497 0
6498 0
6499 0
6500 0
6501 0
6502 0
6503 0
6504 0
6505 0
6506 0
6507 0
6508 0
6509 0
6510 0
6511 0
6512 0
6513 0
6515 0
6516 0
6517 0
6519 0
6520 0
6521 0
6522 0
6523 0
6524 0
6525 0
6526 0
6527 0
6528 0
6529 0
6530 0
6531 0
6532 0
6533 0
6534 0
6535 0
6536 0
6537 0
6538 0
6539 0
6540 0
6541 0
6542 0
6543 0
6544 0
6545 0
6546 0
6547 0
6548 0
6549 0
6550 0
6551 0
6552 0
6553 0
6554 0
6555 0
6556 0
6557 0
6558 0
6559 0
6560 0
6561 0
6562 0
6563 0
6564 0
6565 0
6566 0
6567 0
6568 0
6569 0
6570 0
6571 0
6572 0
6573 0
6574 0
6575 0
6576 0
6577 0
6578 0
6579 0
6580 0
6581 0
6582 0
6583 0
6584 0
6585 0
6586 0
6587 0
6588 0
6589 0
6590 0
6591 0
6592 0
6593 0
6594 0
6595 0
6596 0
6597 0
6598 0
6599 0
6600 0
6601 0
6602 0
6603 0
6604 0
6605 0
6606 0
6607 0
6608 0
6609 0
6610 0
6611 0
6612 0
6613 0
6614 0
6615 0
6616 0
6617 0
6618 0
6619 0
6620 0
6621 0
6622 0
6623 0
6624 0
6625 0
6626 0
6627 0
6628 0
6629 0
6630 0
6631 0
6632 0
6633 0
6634 0
6635 0
6636 0
6637 0
6638 0
6639 0
6640 0
6641 0
6642 0
6643 0
6644 0
6645 0
6646 0
6647 0
6648 0
6649 0
6650 0
6651 0
6652 0
6653 0
6654 0
6655 0
6656 0
6657 0
6658 0
6660 0
6661 0
6662 0
6663 0
6664 0
6665 0
6666 0
6667 0
6668 0
6669 0
6670 0
6671 0
6672 0
6673 0
6674 0
6675 0
6676 0
6677 0
6678 0
6679 0
6681 0
6682 0
6683 0
6684 0
6685 0
6686 0
6687 0
6688 0
6689 0
6690 0
6691 0
6692 0
6693 0
6694 0
6695 0
6696 0
6697 0
6698 0
6699 0
6700 0
6701 0
6702 0
6703 0
6704 0
6705 0
6706 0
6707 0
6708 0
6709 0
6710 0
6711 0
6712 0
6713 0
6714 0
6715 0
6716 0
6717 0
6719 0
6720 0
6721 0
6722 0
6723 0
6724 0
6725 0
6726 0
6727 0
6728 0
6729 0
6730 0
6731 0
6732 0
6733 0
6734 0
6735 0
6736 0
6737 0
6738 0
6739 0
6740 0
6741 0
6742 0
6743 0
6744 0
6745 0
6746 0
6747 0
6748 0
6749 0
6750 0
6751 0
6752 0
6753 0
6755 0
6756 0
6757 0
6758 0
6759 0
6760 0
6761 0
6762 0
6763 0
6764 0
6765 0
6766 0
6767 0
6768 0
6769 0
6770 0
6771 0
6772 0
6773 0
6774 0
6775 0
6776 0
6777 0
6778 0
6779 0
6780 0
6781 0
6782 0
6783 0
6784 0
6785 0
6786 0
6787 0
6788 0
6789 0
6790 0
6791 0
6792 0
6793 0
6794 0
6795 0
6796 0
6797 0
6798 0
6799 0
6800 0
6801 0
6802 0
6803 0
6804 0
6805 0
6806 0
6807 0
6808 0
6809 0
6810 0
6811 0
6812 0
6813 0
6814 0
6815 0
6816 0
6817 0
6818 0
6819 0
6820 0
6821 0
6822 0
6823 0
6824 0
6825 0
6826 0
6827 0
6828 0
6829 0
6830 0
6831 0
6832 0
6833 0
6834 0
6835 0
6836 0
6837 0
6838 0
6839 0
6840 0
6841 0
6842 0
6843 0
6844 0
6845 0
6846 0
6847 0
6848 0
6849 0
6850 0
6851 0
6852 0
6853 0
6854 0
6855 0
6856 0
6857 0
6858 0
6859 0
6860 0
6861 0
6862 0
6863 0
6864 0
6865 0
6866 0
6867 0
6868 0
6869 0
6870 0
6871 0
6872 0
6873 0
6874 0
6875 0
6876 0
6877 0
6878 0
6879 0
6880 0
6881 0
6882 0
6883 0
6884 0
6885 0
6886 0
6887 0
6888 0
6889 0
6890 0
6891 0
6892 0
6893 0
6894 0
6895 0
6896 0
6897 0
6898 0
6899 0
6900 0
6901 0
6902 0
6903 0
6904 0
6905 0
6906 0
6907 0
6908 0
6909 0
6910 0
6911 0
6912 0
6913 0
6914 0
6915 0
6916 0
6917 0
6918 0
6919 0
6920 0
6921 0
6922 0
6923 0
6924 0
6925 0
6926 0
6927 0
6928 0
6929 0
6930 0
6931 0
6932 0
6933 0
6934 0
6935 0
6936 0
6937 0
6938 0
6940 0
6941 0
6942 0
6943 0
6944 0
6945 0
6947 0
6948 0
6949 0
6950 0
6951 0
6952 0
6953 0
6954 0
6955 0
6956 0
6957 0
6958 0
6959 0
6960 0
6961 0
6963 0
6964 0
6965 0
6966 0
6967 0
6968 0
6969 0
6970 0
6971 0
6972 0
6973 0
6974 0
6975 0
6976 0
6977 0
6978 0
6979 0
6980 0
6981 0
6982 0
6983 0
6984 0
6985 0
6986 0
6987 0
6988 0
6989 0
6990 0
6991 0
6992 0
6994 0
6995 0
6996 0
6997 0
6998 0
6999 0
7000 0
7001 0
7002 0
7004 0
7005 0
7006 0
7007 0
7008 0
7009 0
7010 0
7011 0
7012 0
7013 0
7014 0
7015 0
7016 0
7017 0
7018 0
7019 0
7020 0
7021 0
7022 0
7023 0
7024 0
7025 0
7026 0
7027 0
7028 0
7029 0
7030 0
7031 0
7032 0
7033 0
7034 0
7035 0
7036 0
7037 0
7038 0
7039 0
7040 0
7041 0
7042 0
7043 0
7044 0
7045 0
7046 0
7047 0
7048 0
7049 0
7050 0
7051 0
7052 0
7053 0
7054 0
7055 0
7056 0
7057 0
7058 0
7059 0
7060 0
7061 0
7062 0
7063 0
7064 0
7065 0
7066 0
7067 0
7068 0
7069 0
7070 0
7071 0
7072 0
7073 0
7074 0
7075 0
7076 0
7077 0
7078 0
7079 0
7080 0
7081 0
7082 0
7083 0
7084 0
7085 0
7086 0
7087 0
7088 0
7089 0
7090 0
7091 0
7092 0
7093 0
7094 0
7095 0
7096 0
7097 0
7098 0
7099 0
7100 0
7101 0
7102 0
7103 0
7104 0
7105 0
7106 0
7107 0
7108 0
7109 0
7110 0
7111 0
7112 0
7113 0
7114 0
